{
    "pictures": [
        {
            "file": "pictures/monsters-01.png",
            "pattern": "200:1"
        },
        {
            "file": "pictures/monsters-02.png",
            "pattern": "200:2"
        },
        {
            "file": "pictures/monsters-03.png",
            "pattern": "200:3"
        },
        {
            "file": "pictures/monsters-04.png",
            "pattern": "200:4"
        },
        {
            "file": "pictures/monsters-05.png",
            "pattern": "200:5"
        }
    ]
}